%YAML 1.1
%TAG !u! tag:unity3d.com,2011:
--- !u!1 &4160164102731652162
GameObject:
  m_ObjectHideFlags: 0
  m_CorrespondingSourceObject: {fileID: 0}
  m_PrefabInstance: {fileID: 0}
  m_PrefabAsset: {fileID: 0}
  serializedVersion: 6
  m_Component:
  - component: {fileID: 4160164102731652190}
  - component: {fileID: 4160164102731652191}
  - component: {fileID: 4160164102731652160}
  - component: {fileID: 4160164102731652161}
  m_Layer: 5
  m_Name: RaceCanvas
  m_TagString: Untagged
  m_Icon: {fileID: 0}
  m_NavMeshLayer: 0
  m_StaticEditorFlags: 0
  m_IsActive: 1
--- !u!224 &4160164102731652190
RectTransform:
  m_ObjectHideFlags: 0
  m_CorrespondingSourceObject: {fileID: 0}
  m_PrefabInstance: {fileID: 0}
  m_PrefabAsset: {fileID: 0}
  m_GameObject: {fileID: 4160164102731652162}
  m_LocalRotation: {x: 0, y: 0, z: 0, w: 1}
  m_LocalPosition: {x: 0, y: 0, z: 0}
  m_LocalScale: {x: 0, y: 0, z: 0}
  m_Children:
  - {fileID: 4225821068588724747}
  - {fileID: 4226344583423392508}
  - {fileID: 4226254791171217224}
  - {fileID: 4225813599668855469}
  - {fileID: 4226390373409643846}
  - {fileID: 4226152959227566605}
  - {fileID: 4226328660224021295}
  m_Father: {fileID: 0}
  m_RootOrder: 0
  m_LocalEulerAnglesHint: {x: 0, y: 0, z: 0}
  m_AnchorMin: {x: 0, y: 0}
  m_AnchorMax: {x: 0, y: 0}
  m_AnchoredPosition: {x: 0, y: 0}
  m_SizeDelta: {x: 0, y: 0}
  m_Pivot: {x: 0, y: 0}
--- !u!223 &4160164102731652191
Canvas:
  m_ObjectHideFlags: 0
  m_CorrespondingSourceObject: {fileID: 0}
  m_PrefabInstance: {fileID: 0}
  m_PrefabAsset: {fileID: 0}
  m_GameObject: {fileID: 4160164102731652162}
  m_Enabled: 1
  serializedVersion: 3
  m_RenderMode: 0
  m_Camera: {fileID: 0}
  m_PlaneDistance: 100
  m_PixelPerfect: 0
  m_ReceivesEvents: 1
  m_OverrideSorting: 0
  m_OverridePixelPerfect: 0
  m_SortingBucketNormalizedSize: 0
  m_AdditionalShaderChannelsFlag: 25
  m_SortingLayerID: 0
  m_SortingOrder: 0
  m_TargetDisplay: 0
--- !u!114 &4160164102731652160
MonoBehaviour:
  m_ObjectHideFlags: 0
  m_CorrespondingSourceObject: {fileID: 0}
  m_PrefabInstance: {fileID: 0}
  m_PrefabAsset: {fileID: 0}
  m_GameObject: {fileID: 4160164102731652162}
  m_Enabled: 1
  m_EditorHideFlags: 0
  m_Script: {fileID: 11500000, guid: 0cd44c1031e13a943bb63640046fad76, type: 3}
  m_Name: 
  m_EditorClassIdentifier: 
  m_UiScaleMode: 1
  m_ReferencePixelsPerUnit: 100
  m_ScaleFactor: 1
  m_ReferenceResolution: {x: 1280, y: 720}
  m_ScreenMatchMode: 0
  m_MatchWidthOrHeight: 0
  m_PhysicalUnit: 3
  m_FallbackScreenDPI: 96
  m_DefaultSpriteDPI: 96
  m_DynamicPixelsPerUnit: 1
--- !u!114 &4160164102731652161
MonoBehaviour:
  m_ObjectHideFlags: 0
  m_CorrespondingSourceObject: {fileID: 0}
  m_PrefabInstance: {fileID: 0}
  m_PrefabAsset: {fileID: 0}
  m_GameObject: {fileID: 4160164102731652162}
  m_Enabled: 1
  m_EditorHideFlags: 0
  m_Script: {fileID: 11500000, guid: dc42784cf147c0c48a680349fa168899, type: 3}
  m_Name: 
  m_EditorClassIdentifier: 
  m_IgnoreReversedGraphics: 1
  m_BlockingObjects: 0
  m_BlockingMask:
    serializedVersion: 2
    m_Bits: 4294967295
--- !u!1001 &4160164101922873473
PrefabInstance:
  m_ObjectHideFlags: 0
  serializedVersion: 2
  m_Modification:
    m_TransformParent: {fileID: 4160164102731652190}
    m_Modifications:
    - target: {fileID: 114645279727621424, guid: 92b6ac8f46d10408e810d7e666e3dfdd,
        type: 3}
      propertyPath: m_FontData.m_MinSize
      value: 5
      objectReference: {fileID: 0}
    - target: {fileID: 224389105264718766, guid: 92b6ac8f46d10408e810d7e666e3dfdd,
        type: 3}
      propertyPath: m_LocalPosition.x
      value: 0
      objectReference: {fileID: 0}
    - target: {fileID: 224389105264718766, guid: 92b6ac8f46d10408e810d7e666e3dfdd,
        type: 3}
      propertyPath: m_LocalPosition.y
      value: 0
      objectReference: {fileID: 0}
    - target: {fileID: 224389105264718766, guid: 92b6ac8f46d10408e810d7e666e3dfdd,
        type: 3}
      propertyPath: m_LocalPosition.z
      value: 0
      objectReference: {fileID: 0}
    - target: {fileID: 224389105264718766, guid: 92b6ac8f46d10408e810d7e666e3dfdd,
        type: 3}
      propertyPath: m_LocalRotation.x
      value: 0
      objectReference: {fileID: 0}
    - target: {fileID: 224389105264718766, guid: 92b6ac8f46d10408e810d7e666e3dfdd,
        type: 3}
      propertyPath: m_LocalRotation.y
      value: 0
      objectReference: {fileID: 0}
    - target: {fileID: 224389105264718766, guid: 92b6ac8f46d10408e810d7e666e3dfdd,
        type: 3}
      propertyPath: m_LocalRotation.z
      value: 0
      objectReference: {fileID: 0}
    - target: {fileID: 224389105264718766, guid: 92b6ac8f46d10408e810d7e666e3dfdd,
        type: 3}
      propertyPath: m_LocalRotation.w
      value: 1
      objectReference: {fileID: 0}
    - target: {fileID: 224389105264718766, guid: 92b6ac8f46d10408e810d7e666e3dfdd,
        type: 3}
      propertyPath: m_RootOrder
      value: 6
      objectReference: {fileID: 0}
    - target: {fileID: 224389105264718766, guid: 92b6ac8f46d10408e810d7e666e3dfdd,
        type: 3}
      propertyPath: m_AnchoredPosition.x
      value: 0.79992676
      objectReference: {fileID: 0}
    - target: {fileID: 224389105264718766, guid: 92b6ac8f46d10408e810d7e666e3dfdd,
        type: 3}
      propertyPath: m_AnchoredPosition.y
      value: 0.7000122
      objectReference: {fileID: 0}
    - target: {fileID: 224389105264718766, guid: 92b6ac8f46d10408e810d7e666e3dfdd,
        type: 3}
      propertyPath: m_SizeDelta.x
      value: 1.6000004
      objectReference: {fileID: 0}
    - target: {fileID: 224389105264718766, guid: 92b6ac8f46d10408e810d7e666e3dfdd,
        type: 3}
      propertyPath: m_SizeDelta.y
      value: 1.5
      objectReference: {fileID: 0}
    - target: {fileID: 224389105264718766, guid: 92b6ac8f46d10408e810d7e666e3dfdd,
        type: 3}
      propertyPath: m_AnchorMin.x
      value: 0
      objectReference: {fileID: 0}
    - target: {fileID: 224389105264718766, guid: 92b6ac8f46d10408e810d7e666e3dfdd,
        type: 3}
      propertyPath: m_AnchorMin.y
      value: 0
      objectReference: {fileID: 0}
    - target: {fileID: 224389105264718766, guid: 92b6ac8f46d10408e810d7e666e3dfdd,
        type: 3}
      propertyPath: m_AnchorMax.x
      value: 0.10614855
      objectReference: {fileID: 0}
    - target: {fileID: 224389105264718766, guid: 92b6ac8f46d10408e810d7e666e3dfdd,
        type: 3}
      propertyPath: m_AnchorMax.y
      value: 0.07160418
      objectReference: {fileID: 0}
    - target: {fileID: 224389105264718766, guid: 92b6ac8f46d10408e810d7e666e3dfdd,
        type: 3}
      propertyPath: m_Pivot.x
      value: 0.5
      objectReference: {fileID: 0}
    - target: {fileID: 224389105264718766, guid: 92b6ac8f46d10408e810d7e666e3dfdd,
        type: 3}
      propertyPath: m_Pivot.y
      value: 0.5
      objectReference: {fileID: 0}
    - target: {fileID: 224395337476948522, guid: 92b6ac8f46d10408e810d7e666e3dfdd,
        type: 3}
      propertyPath: m_AnchoredPosition.x
      value: -0.36184692
      objectReference: {fileID: 0}
    - target: {fileID: 224395337476948522, guid: 92b6ac8f46d10408e810d7e666e3dfdd,
        type: 3}
      propertyPath: m_AnchoredPosition.y
      value: 0.5
      objectReference: {fileID: 0}
    - target: {fileID: 224395337476948522, guid: 92b6ac8f46d10408e810d7e666e3dfdd,
        type: 3}
      propertyPath: m_SizeDelta.y
      value: -1
      objectReference: {fileID: 0}
    - target: {fileID: 224608411799590262, guid: 92b6ac8f46d10408e810d7e666e3dfdd,
        type: 3}
      propertyPath: m_AnchoredPosition.x
      value: 1.3999939
      objectReference: {fileID: 0}
    - target: {fileID: 224608411799590262, guid: 92b6ac8f46d10408e810d7e666e3dfdd,
        type: 3}
      propertyPath: m_AnchoredPosition.y
      value: 0.15000153
      objectReference: {fileID: 0}
    - target: {fileID: 224608411799590262, guid: 92b6ac8f46d10408e810d7e666e3dfdd,
        type: 3}
      propertyPath: m_AnchorMin.y
      value: 0.07659677
      objectReference: {fileID: 0}
    - target: {fileID: 224608411799590262, guid: 92b6ac8f46d10408e810d7e666e3dfdd,
        type: 3}
      propertyPath: m_SizeDelta.y
      value: 1.7
      objectReference: {fileID: 0}
    - target: {fileID: 224608411799590262, guid: 92b6ac8f46d10408e810d7e666e3dfdd,
        type: 3}
      propertyPath: m_AnchorMin.x
      value: 0.09259257
      objectReference: {fileID: 0}
    - target: {fileID: 224608411799590262, guid: 92b6ac8f46d10408e810d7e666e3dfdd,
        type: 3}
      propertyPath: m_SizeDelta.x
      value: 3.2
      objectReference: {fileID: 0}
    - target: {fileID: 224608411799590262, guid: 92b6ac8f46d10408e810d7e666e3dfdd,
        type: 3}
      propertyPath: m_AnchorMax.x
      value: 0.91481483
      objectReference: {fileID: 0}
    - target: {fileID: 224608411799590262, guid: 92b6ac8f46d10408e810d7e666e3dfdd,
        type: 3}
      propertyPath: m_AnchorMax.y
      value: 0.4837853
      objectReference: {fileID: 0}
    m_RemovedComponents: []
  m_SourcePrefab: {fileID: 100100000, guid: 92b6ac8f46d10408e810d7e666e3dfdd, type: 3}
--- !u!224 &4226328660224021295 stripped
RectTransform:
  m_CorrespondingSourceObject: {fileID: 224389105264718766, guid: 92b6ac8f46d10408e810d7e666e3dfdd,
    type: 3}
  m_PrefabInstance: {fileID: 4160164101922873473}
  m_PrefabAsset: {fileID: 0}
--- !u!1001 &4160164102044422995
PrefabInstance:
  m_ObjectHideFlags: 0
  serializedVersion: 2
  m_Modification:
    m_TransformParent: {fileID: 4160164102731652190}
    m_Modifications:
    - target: {fileID: 114376252457019666, guid: b1c5b8d5613adf648a0511a9824ade2d,
        type: 3}
      propertyPath: m_OnClick.m_PersistentCalls.m_Calls.Array.data[0].m_Target
      value: 
      objectReference: {fileID: 4048088486074870115}
    - target: {fileID: 114376252457019666, guid: b1c5b8d5613adf648a0511a9824ade2d,
        type: 3}
      propertyPath: m_OnClick.m_PersistentCalls.m_Calls.Array.data[0].m_MethodName
      value: LoadMenuScene
      objectReference: {fileID: 0}
    - target: {fileID: 224280005622024586, guid: b1c5b8d5613adf648a0511a9824ade2d,
        type: 3}
      propertyPath: m_AnchoredPosition.x
      value: -1.3000183
      objectReference: {fileID: 0}
    - target: {fileID: 224280005622024586, guid: b1c5b8d5613adf648a0511a9824ade2d,
        type: 3}
      propertyPath: m_AnchoredPosition.y
      value: 0.9000015
      objectReference: {fileID: 0}
    - target: {fileID: 224494488356718942, guid: b1c5b8d5613adf648a0511a9824ade2d,
        type: 3}
      propertyPath: m_LocalPosition.x
      value: 0
      objectReference: {fileID: 0}
    - target: {fileID: 224494488356718942, guid: b1c5b8d5613adf648a0511a9824ade2d,
        type: 3}
      propertyPath: m_LocalPosition.y
      value: 0
      objectReference: {fileID: 0}
    - target: {fileID: 224494488356718942, guid: b1c5b8d5613adf648a0511a9824ade2d,
        type: 3}
      propertyPath: m_LocalPosition.z
      value: 0
      objectReference: {fileID: 0}
    - target: {fileID: 224494488356718942, guid: b1c5b8d5613adf648a0511a9824ade2d,
        type: 3}
      propertyPath: m_LocalRotation.x
      value: -0
      objectReference: {fileID: 0}
    - target: {fileID: 224494488356718942, guid: b1c5b8d5613adf648a0511a9824ade2d,
        type: 3}
      propertyPath: m_LocalRotation.y
      value: -0
      objectReference: {fileID: 0}
    - target: {fileID: 224494488356718942, guid: b1c5b8d5613adf648a0511a9824ade2d,
        type: 3}
      propertyPath: m_LocalRotation.z
      value: -0
      objectReference: {fileID: 0}
    - target: {fileID: 224494488356718942, guid: b1c5b8d5613adf648a0511a9824ade2d,
        type: 3}
      propertyPath: m_LocalRotation.w
      value: 1
      objectReference: {fileID: 0}
    - target: {fileID: 224494488356718942, guid: b1c5b8d5613adf648a0511a9824ade2d,
        type: 3}
      propertyPath: m_RootOrder
      value: 5
      objectReference: {fileID: 0}
    - target: {fileID: 224494488356718942, guid: b1c5b8d5613adf648a0511a9824ade2d,
        type: 3}
      propertyPath: m_AnchoredPosition.x
      value: 0
      objectReference: {fileID: 0}
    - target: {fileID: 224494488356718942, guid: b1c5b8d5613adf648a0511a9824ade2d,
        type: 3}
      propertyPath: m_AnchoredPosition.y
      value: 0
      objectReference: {fileID: 0}
    - target: {fileID: 224494488356718942, guid: b1c5b8d5613adf648a0511a9824ade2d,
        type: 3}
      propertyPath: m_SizeDelta.x
      value: 0
      objectReference: {fileID: 0}
    - target: {fileID: 224494488356718942, guid: b1c5b8d5613adf648a0511a9824ade2d,
        type: 3}
      propertyPath: m_SizeDelta.y
      value: 0
      objectReference: {fileID: 0}
    - target: {fileID: 224494488356718942, guid: b1c5b8d5613adf648a0511a9824ade2d,
        type: 3}
      propertyPath: m_AnchorMin.x
      value: 0.8554054
      objectReference: {fileID: 0}
    - target: {fileID: 224494488356718942, guid: b1c5b8d5613adf648a0511a9824ade2d,
        type: 3}
      propertyPath: m_AnchorMin.y
      value: 0.00085178873
      objectReference: {fileID: 0}
    - target: {fileID: 224494488356718942, guid: b1c5b8d5613adf648a0511a9824ade2d,
        type: 3}
      propertyPath: m_AnchorMax.x
      value: 1.0004505
      objectReference: {fileID: 0}
    - target: {fileID: 224494488356718942, guid: b1c5b8d5613adf648a0511a9824ade2d,
        type: 3}
      propertyPath: m_AnchorMax.y
      value: 0.063884154
      objectReference: {fileID: 0}
    - target: {fileID: 224494488356718942, guid: b1c5b8d5613adf648a0511a9824ade2d,
        type: 3}
      propertyPath: m_Pivot.x
      value: 0.5
      objectReference: {fileID: 0}
    - target: {fileID: 224494488356718942, guid: b1c5b8d5613adf648a0511a9824ade2d,
        type: 3}
      propertyPath: m_Pivot.y
      value: 0.5
      objectReference: {fileID: 0}
    m_RemovedComponents: []
  m_SourcePrefab: {fileID: 100100000, guid: b1c5b8d5613adf648a0511a9824ade2d, type: 3}
--- !u!224 &4226152959227566605 stripped
RectTransform:
  m_CorrespondingSourceObject: {fileID: 224494488356718942, guid: b1c5b8d5613adf648a0511a9824ade2d,
    type: 3}
  m_PrefabInstance: {fileID: 4160164102044422995}
  m_PrefabAsset: {fileID: 0}
--- !u!1001 &4160164102077699202
PrefabInstance:
  m_ObjectHideFlags: 0
  serializedVersion: 2
  m_Modification:
    m_TransformParent: {fileID: 4160164102731652190}
    m_Modifications:
    - target: {fileID: 114004372304906892, guid: e9fff5699d2384074977a12cf04b4db8,
        type: 3}
      propertyPath: m_Text
      value: 'Steer Max: 7'
      objectReference: {fileID: 0}
    - target: {fileID: 114333044586679056, guid: e9fff5699d2384074977a12cf04b4db8,
        type: 3}
      propertyPath: m_Text
      value: 'Diff: 60'
      objectReference: {fileID: 0}
    - target: {fileID: 114390039734892222, guid: e9fff5699d2384074977a12cf04b4db8,
        type: 3}
      propertyPath: m_Text
      value: 'Prop: 10'
      objectReference: {fileID: 0}
    - target: {fileID: 114508305361058362, guid: e9fff5699d2384074977a12cf04b4db8,
        type: 3}
      propertyPath: m_Text
      value: 'Max Speed: 5'
      objectReference: {fileID: 0}
    - target: {fileID: 114577809269408254, guid: e9fff5699d2384074977a12cf04b4db8,
        type: 3}
      propertyPath: pid
      value: 
      objectReference: {fileID: 0}
    - target: {fileID: 114577809269408254, guid: e9fff5699d2384074977a12cf04b4db8,
        type: 3}
      propertyPath: logger
      value: 
      objectReference: {fileID: 0}
    - target: {fileID: 224372064716631678, guid: e9fff5699d2384074977a12cf04b4db8,
        type: 3}
      propertyPath: m_LocalPosition.x
      value: 0
      objectReference: {fileID: 0}
    - target: {fileID: 224372064716631678, guid: e9fff5699d2384074977a12cf04b4db8,
        type: 3}
      propertyPath: m_LocalPosition.y
      value: 0
      objectReference: {fileID: 0}
    - target: {fileID: 224372064716631678, guid: e9fff5699d2384074977a12cf04b4db8,
        type: 3}
      propertyPath: m_LocalPosition.z
      value: 0
      objectReference: {fileID: 0}
    - target: {fileID: 224372064716631678, guid: e9fff5699d2384074977a12cf04b4db8,
        type: 3}
      propertyPath: m_LocalRotation.x
      value: 0
      objectReference: {fileID: 0}
    - target: {fileID: 224372064716631678, guid: e9fff5699d2384074977a12cf04b4db8,
        type: 3}
      propertyPath: m_LocalRotation.y
      value: 0
      objectReference: {fileID: 0}
    - target: {fileID: 224372064716631678, guid: e9fff5699d2384074977a12cf04b4db8,
        type: 3}
      propertyPath: m_LocalRotation.z
      value: 0
      objectReference: {fileID: 0}
    - target: {fileID: 224372064716631678, guid: e9fff5699d2384074977a12cf04b4db8,
        type: 3}
      propertyPath: m_LocalRotation.w
      value: 1
      objectReference: {fileID: 0}
    - target: {fileID: 224372064716631678, guid: e9fff5699d2384074977a12cf04b4db8,
        type: 3}
      propertyPath: m_RootOrder
      value: 1
      objectReference: {fileID: 0}
    - target: {fileID: 224372064716631678, guid: e9fff5699d2384074977a12cf04b4db8,
        type: 3}
      propertyPath: m_AnchoredPosition.x
      value: 0
      objectReference: {fileID: 0}
    - target: {fileID: 224372064716631678, guid: e9fff5699d2384074977a12cf04b4db8,
        type: 3}
      propertyPath: m_AnchoredPosition.y
      value: 0
      objectReference: {fileID: 0}
    - target: {fileID: 224372064716631678, guid: e9fff5699d2384074977a12cf04b4db8,
        type: 3}
      propertyPath: m_SizeDelta.x
      value: 0
      objectReference: {fileID: 0}
    - target: {fileID: 224372064716631678, guid: e9fff5699d2384074977a12cf04b4db8,
        type: 3}
      propertyPath: m_SizeDelta.y
      value: 0
      objectReference: {fileID: 0}
    - target: {fileID: 224372064716631678, guid: e9fff5699d2384074977a12cf04b4db8,
        type: 3}
      propertyPath: m_AnchorMin.x
      value: 0
      objectReference: {fileID: 0}
    - target: {fileID: 224372064716631678, guid: e9fff5699d2384074977a12cf04b4db8,
        type: 3}
      propertyPath: m_AnchorMin.y
      value: 0.61783856
      objectReference: {fileID: 0}
    - target: {fileID: 224372064716631678, guid: e9fff5699d2384074977a12cf04b4db8,
        type: 3}
      propertyPath: m_AnchorMax.x
      value: 0.27429688
      objectReference: {fileID: 0}
    - target: {fileID: 224372064716631678, guid: e9fff5699d2384074977a12cf04b4db8,
        type: 3}
      propertyPath: m_AnchorMax.y
      value: 0.89778644
      objectReference: {fileID: 0}
    - target: {fileID: 224372064716631678, guid: e9fff5699d2384074977a12cf04b4db8,
        type: 3}
      propertyPath: m_Pivot.x
      value: 0.5
      objectReference: {fileID: 0}
    - target: {fileID: 224372064716631678, guid: e9fff5699d2384074977a12cf04b4db8,
        type: 3}
      propertyPath: m_Pivot.y
      value: 0.5
      objectReference: {fileID: 0}
    m_RemovedComponents: []
  m_SourcePrefab: {fileID: 100100000, guid: e9fff5699d2384074977a12cf04b4db8, type: 3}
--- !u!224 &4226344583423392508 stripped
RectTransform:
  m_CorrespondingSourceObject: {fileID: 224372064716631678, guid: e9fff5699d2384074977a12cf04b4db8,
    type: 3}
  m_PrefabInstance: {fileID: 4160164102077699202}
  m_PrefabAsset: {fileID: 0}
--- !u!1001 &4160164102475705784
PrefabInstance:
  m_ObjectHideFlags: 0
  serializedVersion: 2
  m_Modification:
    m_TransformParent: {fileID: 4160164102731652190}
    m_Modifications:
    - target: {fileID: 114962920853703476, guid: 74a5e5f01dbed34429e74e845bc3b9af,
        type: 3}
      propertyPath: m_OnClick.m_PersistentCalls.m_Calls.Array.data[0].m_Target
      value: 
      objectReference: {fileID: 4048215377336676787}
    - target: {fileID: 114962920853703476, guid: 74a5e5f01dbed34429e74e845bc3b9af,
        type: 3}
      propertyPath: m_OnClick.m_PersistentCalls.m_Calls.Array.data[0].m_MethodName
      value: OnStop
      objectReference: {fileID: 0}
    - target: {fileID: 224327393153855742, guid: 74a5e5f01dbed34429e74e845bc3b9af,
        type: 3}
      propertyPath: m_LocalPosition.x
      value: 0
      objectReference: {fileID: 0}
    - target: {fileID: 224327393153855742, guid: 74a5e5f01dbed34429e74e845bc3b9af,
        type: 3}
      propertyPath: m_LocalPosition.y
      value: 0
      objectReference: {fileID: 0}
    - target: {fileID: 224327393153855742, guid: 74a5e5f01dbed34429e74e845bc3b9af,
        type: 3}
      propertyPath: m_LocalPosition.z
      value: 0
      objectReference: {fileID: 0}
    - target: {fileID: 224327393153855742, guid: 74a5e5f01dbed34429e74e845bc3b9af,
        type: 3}
      propertyPath: m_LocalRotation.x
      value: 0
      objectReference: {fileID: 0}
    - target: {fileID: 224327393153855742, guid: 74a5e5f01dbed34429e74e845bc3b9af,
        type: 3}
      propertyPath: m_LocalRotation.y
      value: 0
      objectReference: {fileID: 0}
    - target: {fileID: 224327393153855742, guid: 74a5e5f01dbed34429e74e845bc3b9af,
        type: 3}
      propertyPath: m_LocalRotation.z
      value: 0
      objectReference: {fileID: 0}
    - target: {fileID: 224327393153855742, guid: 74a5e5f01dbed34429e74e845bc3b9af,
        type: 3}
      propertyPath: m_LocalRotation.w
      value: 1
      objectReference: {fileID: 0}
    - target: {fileID: 224327393153855742, guid: 74a5e5f01dbed34429e74e845bc3b9af,
        type: 3}
      propertyPath: m_RootOrder
      value: 4
      objectReference: {fileID: 0}
    - target: {fileID: 224327393153855742, guid: 74a5e5f01dbed34429e74e845bc3b9af,
        type: 3}
      propertyPath: m_AnchoredPosition.x
      value: 0
      objectReference: {fileID: 0}
    - target: {fileID: 224327393153855742, guid: 74a5e5f01dbed34429e74e845bc3b9af,
        type: 3}
      propertyPath: m_AnchoredPosition.y
      value: 0
      objectReference: {fileID: 0}
    - target: {fileID: 224327393153855742, guid: 74a5e5f01dbed34429e74e845bc3b9af,
        type: 3}
      propertyPath: m_SizeDelta.x
      value: 0
      objectReference: {fileID: 0}
    - target: {fileID: 224327393153855742, guid: 74a5e5f01dbed34429e74e845bc3b9af,
        type: 3}
      propertyPath: m_SizeDelta.y
      value: 0
      objectReference: {fileID: 0}
    - target: {fileID: 224327393153855742, guid: 74a5e5f01dbed34429e74e845bc3b9af,
        type: 3}
      propertyPath: m_AnchorMin.x
      value: 0.85519177
      objectReference: {fileID: 0}
    - target: {fileID: 224327393153855742, guid: 74a5e5f01dbed34429e74e845bc3b9af,
        type: 3}
      propertyPath: m_AnchorMin.y
      value: 0.9249971
      objectReference: {fileID: 0}
    - target: {fileID: 224327393153855742, guid: 74a5e5f01dbed34429e74e845bc3b9af,
        type: 3}
      propertyPath: m_AnchorMax.x
      value: 0.99977654
      objectReference: {fileID: 0}
    - target: {fileID: 224327393153855742, guid: 74a5e5f01dbed34429e74e845bc3b9af,
        type: 3}
      propertyPath: m_AnchorMax.y
      value: 1
      objectReference: {fileID: 0}
    - target: {fileID: 224327393153855742, guid: 74a5e5f01dbed34429e74e845bc3b9af,
        type: 3}
      propertyPath: m_Pivot.x
      value: 0.5
      objectReference: {fileID: 0}
    - target: {fileID: 224327393153855742, guid: 74a5e5f01dbed34429e74e845bc3b9af,
        type: 3}
      propertyPath: m_Pivot.y
      value: 0.5
      objectReference: {fileID: 0}
    - target: {fileID: 224501983197500574, guid: 74a5e5f01dbed34429e74e845bc3b9af,
        type: 3}
      propertyPath: m_AnchoredPosition.y
      value: 1.0999985
      objectReference: {fileID: 0}
    m_RemovedComponents: []
  m_SourcePrefab: {fileID: 100100000, guid: 74a5e5f01dbed34429e74e845bc3b9af, type: 3}
--- !u!224 &4226390373409643846 stripped
RectTransform:
  m_CorrespondingSourceObject: {fileID: 224327393153855742, guid: 74a5e5f01dbed34429e74e845bc3b9af,
    type: 3}
  m_PrefabInstance: {fileID: 4160164102475705784}
  m_PrefabAsset: {fileID: 0}
--- !u!1001 &4160164102557950182
PrefabInstance:
  m_ObjectHideFlags: 0
  serializedVersion: 2
  m_Modification:
    m_TransformParent: {fileID: 4160164102731652190}
    m_Modifications:
    - target: {fileID: 114780741690321652, guid: 0eae2b67074794fe697e7dd14e8aa706,
        type: 3}
      propertyPath: m_Color.a
      value: 0.653
      objectReference: {fileID: 0}
    - target: {fileID: 224462425246791598, guid: 0eae2b67074794fe697e7dd14e8aa706,
        type: 3}
      propertyPath: m_LocalPosition.x
      value: 0
      objectReference: {fileID: 0}
    - target: {fileID: 224462425246791598, guid: 0eae2b67074794fe697e7dd14e8aa706,
        type: 3}
      propertyPath: m_LocalPosition.y
      value: 0
      objectReference: {fileID: 0}
    - target: {fileID: 224462425246791598, guid: 0eae2b67074794fe697e7dd14e8aa706,
        type: 3}
      propertyPath: m_LocalPosition.z
      value: 0
      objectReference: {fileID: 0}
    - target: {fileID: 224462425246791598, guid: 0eae2b67074794fe697e7dd14e8aa706,
        type: 3}
      propertyPath: m_LocalRotation.x
      value: 0
      objectReference: {fileID: 0}
    - target: {fileID: 224462425246791598, guid: 0eae2b67074794fe697e7dd14e8aa706,
        type: 3}
      propertyPath: m_LocalRotation.y
      value: 0
      objectReference: {fileID: 0}
    - target: {fileID: 224462425246791598, guid: 0eae2b67074794fe697e7dd14e8aa706,
        type: 3}
      propertyPath: m_LocalRotation.z
      value: 0
      objectReference: {fileID: 0}
    - target: {fileID: 224462425246791598, guid: 0eae2b67074794fe697e7dd14e8aa706,
        type: 3}
      propertyPath: m_LocalRotation.w
      value: 1
      objectReference: {fileID: 0}
    - target: {fileID: 224462425246791598, guid: 0eae2b67074794fe697e7dd14e8aa706,
        type: 3}
      propertyPath: m_RootOrder
      value: 2
      objectReference: {fileID: 0}
    - target: {fileID: 224462425246791598, guid: 0eae2b67074794fe697e7dd14e8aa706,
        type: 3}
      propertyPath: m_AnchoredPosition.x
      value: -0.5
      objectReference: {fileID: 0}
    - target: {fileID: 224462425246791598, guid: 0eae2b67074794fe697e7dd14e8aa706,
        type: 3}
      propertyPath: m_AnchoredPosition.y
      value: 1.5
      objectReference: {fileID: 0}
    - target: {fileID: 224462425246791598, guid: 0eae2b67074794fe697e7dd14e8aa706,
        type: 3}
      propertyPath: m_SizeDelta.x
      value: -2
      objectReference: {fileID: 0}
    - target: {fileID: 224462425246791598, guid: 0eae2b67074794fe697e7dd14e8aa706,
        type: 3}
      propertyPath: m_SizeDelta.y
      value: -3
      objectReference: {fileID: 0}
    - target: {fileID: 224462425246791598, guid: 0eae2b67074794fe697e7dd14e8aa706,
        type: 3}
      propertyPath: m_AnchorMin.x
      value: 0
      objectReference: {fileID: 0}
    - target: {fileID: 224462425246791598, guid: 0eae2b67074794fe697e7dd14e8aa706,
        type: 3}
      propertyPath: m_AnchorMin.y
      value: 0.90000004
      objectReference: {fileID: 0}
    - target: {fileID: 224462425246791598, guid: 0eae2b67074794fe697e7dd14e8aa706,
        type: 3}
      propertyPath: m_AnchorMax.x
      value: 0.22746876
      objectReference: {fileID: 0}
    - target: {fileID: 224462425246791598, guid: 0eae2b67074794fe697e7dd14e8aa706,
        type: 3}
      propertyPath: m_AnchorMax.y
      value: 1
      objectReference: {fileID: 0}
    - target: {fileID: 224462425246791598, guid: 0eae2b67074794fe697e7dd14e8aa706,
        type: 3}
      propertyPath: m_Pivot.x
      value: 0.5
      objectReference: {fileID: 0}
    - target: {fileID: 224462425246791598, guid: 0eae2b67074794fe697e7dd14e8aa706,
        type: 3}
      propertyPath: m_Pivot.y
      value: 0.5
      objectReference: {fileID: 0}
    - target: {fileID: 224776354760608250, guid: 0eae2b67074794fe697e7dd14e8aa706,
        type: 3}
      propertyPath: m_AnchoredPosition.x
      value: -0.049987793
      objectReference: {fileID: 0}
    - target: {fileID: 224803864854266692, guid: 0eae2b67074794fe697e7dd14e8aa706,
        type: 3}
      propertyPath: m_AnchoredPosition.x
      value: 0.3999939
      objectReference: {fileID: 0}
    - target: {fileID: 224852417293375932, guid: 0eae2b67074794fe697e7dd14e8aa706,
        type: 3}
      propertyPath: m_AnchoredPosition.x
      value: -0.049987793
      objectReference: {fileID: 0}
    - target: {fileID: 224852417293375932, guid: 0eae2b67074794fe697e7dd14e8aa706,
        type: 3}
      propertyPath: m_AnchoredPosition.y
      value: 0.70000076
      objectReference: {fileID: 0}
    m_RemovedComponents: []
  m_SourcePrefab: {fileID: 100100000, guid: 0eae2b67074794fe697e7dd14e8aa706, type: 3}
--- !u!224 &4226254791171217224 stripped
RectTransform:
  m_CorrespondingSourceObject: {fileID: 224462425246791598, guid: 0eae2b67074794fe697e7dd14e8aa706,
    type: 3}
  m_PrefabInstance: {fileID: 4160164102557950182}
  m_PrefabAsset: {fileID: 0}
--- !u!1001 &4160164102951787001
PrefabInstance:
  m_ObjectHideFlags: 0
  serializedVersion: 2
  m_Modification:
    m_TransformParent: {fileID: 4160164102731652190}
    m_Modifications:
    - target: {fileID: 224075897213835468, guid: 7a25587ae4fe446b98418947bb7da6cb,
        type: 3}
      propertyPath: m_AnchorMin.y
      value: 0
      objectReference: {fileID: 0}
    - target: {fileID: 224075897213835468, guid: 7a25587ae4fe446b98418947bb7da6cb,
        type: 3}
      propertyPath: m_AnchorMax.y
      value: 0
      objectReference: {fileID: 0}
    - target: {fileID: 224075897213835468, guid: 7a25587ae4fe446b98418947bb7da6cb,
        type: 3}
      propertyPath: m_AnchoredPosition.x
      value: 0
      objectReference: {fileID: 0}
    - target: {fileID: 224075897213835468, guid: 7a25587ae4fe446b98418947bb7da6cb,
        type: 3}
      propertyPath: m_AnchoredPosition.y
      value: 0
      objectReference: {fileID: 0}
    - target: {fileID: 224075897213835468, guid: 7a25587ae4fe446b98418947bb7da6cb,
        type: 3}
      propertyPath: m_SizeDelta.x
      value: 0
      objectReference: {fileID: 0}
    - target: {fileID: 224075897213835468, guid: 7a25587ae4fe446b98418947bb7da6cb,
        type: 3}
      propertyPath: m_SizeDelta.y
      value: 0
      objectReference: {fileID: 0}
    - target: {fileID: 224096528805942660, guid: 7a25587ae4fe446b98418947bb7da6cb,
        type: 3}
      propertyPath: m_AnchorMin.y
      value: 0
      objectReference: {fileID: 0}
    - target: {fileID: 224096528805942660, guid: 7a25587ae4fe446b98418947bb7da6cb,
        type: 3}
      propertyPath: m_AnchorMax.y
      value: 0
      objectReference: {fileID: 0}
    - target: {fileID: 224096528805942660, guid: 7a25587ae4fe446b98418947bb7da6cb,
        type: 3}
      propertyPath: m_AnchoredPosition.x
      value: 0
      objectReference: {fileID: 0}
    - target: {fileID: 224096528805942660, guid: 7a25587ae4fe446b98418947bb7da6cb,
        type: 3}
      propertyPath: m_AnchoredPosition.y
      value: 0
      objectReference: {fileID: 0}
    - target: {fileID: 224096528805942660, guid: 7a25587ae4fe446b98418947bb7da6cb,
        type: 3}
      propertyPath: m_SizeDelta.x
      value: 0
      objectReference: {fileID: 0}
    - target: {fileID: 224096528805942660, guid: 7a25587ae4fe446b98418947bb7da6cb,
        type: 3}
      propertyPath: m_SizeDelta.y
      value: 0
      objectReference: {fileID: 0}
    - target: {fileID: 224147211218283400, guid: 7a25587ae4fe446b98418947bb7da6cb,
        type: 3}
      propertyPath: m_AnchorMin.y
      value: 0
      objectReference: {fileID: 0}
    - target: {fileID: 224147211218283400, guid: 7a25587ae4fe446b98418947bb7da6cb,
        type: 3}
      propertyPath: m_AnchorMax.y
      value: 0
      objectReference: {fileID: 0}
    - target: {fileID: 224147211218283400, guid: 7a25587ae4fe446b98418947bb7da6cb,
        type: 3}
      propertyPath: m_AnchoredPosition.x
      value: 0
      objectReference: {fileID: 0}
    - target: {fileID: 224147211218283400, guid: 7a25587ae4fe446b98418947bb7da6cb,
        type: 3}
      propertyPath: m_AnchoredPosition.y
      value: 0
      objectReference: {fileID: 0}
    - target: {fileID: 224147211218283400, guid: 7a25587ae4fe446b98418947bb7da6cb,
        type: 3}
      propertyPath: m_SizeDelta.x
      value: 0
      objectReference: {fileID: 0}
    - target: {fileID: 224147211218283400, guid: 7a25587ae4fe446b98418947bb7da6cb,
        type: 3}
      propertyPath: m_SizeDelta.y
      value: 0
      objectReference: {fileID: 0}
    - target: {fileID: 224181182735762976, guid: 7a25587ae4fe446b98418947bb7da6cb,
        type: 3}
      propertyPath: m_AnchorMin.y
      value: 0
      objectReference: {fileID: 0}
    - target: {fileID: 224181182735762976, guid: 7a25587ae4fe446b98418947bb7da6cb,
        type: 3}
      propertyPath: m_AnchorMax.y
      value: 0
      objectReference: {fileID: 0}
    - target: {fileID: 224181182735762976, guid: 7a25587ae4fe446b98418947bb7da6cb,
        type: 3}
      propertyPath: m_AnchoredPosition.x
      value: 0
      objectReference: {fileID: 0}
    - target: {fileID: 224181182735762976, guid: 7a25587ae4fe446b98418947bb7da6cb,
        type: 3}
      propertyPath: m_AnchoredPosition.y
      value: 0
      objectReference: {fileID: 0}
    - target: {fileID: 224181182735762976, guid: 7a25587ae4fe446b98418947bb7da6cb,
        type: 3}
      propertyPath: m_SizeDelta.x
      value: 0
      objectReference: {fileID: 0}
    - target: {fileID: 224181182735762976, guid: 7a25587ae4fe446b98418947bb7da6cb,
        type: 3}
      propertyPath: m_SizeDelta.y
      value: 0
      objectReference: {fileID: 0}
    - target: {fileID: 224832679919696724, guid: 7a25587ae4fe446b98418947bb7da6cb,
        type: 3}
      propertyPath: m_LocalPosition.x
      value: 0
      objectReference: {fileID: 0}
    - target: {fileID: 224832679919696724, guid: 7a25587ae4fe446b98418947bb7da6cb,
        type: 3}
      propertyPath: m_LocalPosition.y
      value: 0
      objectReference: {fileID: 0}
    - target: {fileID: 224832679919696724, guid: 7a25587ae4fe446b98418947bb7da6cb,
        type: 3}
      propertyPath: m_LocalPosition.z
      value: 0
      objectReference: {fileID: 0}
    - target: {fileID: 224832679919696724, guid: 7a25587ae4fe446b98418947bb7da6cb,
        type: 3}
      propertyPath: m_LocalRotation.x
      value: 0
      objectReference: {fileID: 0}
    - target: {fileID: 224832679919696724, guid: 7a25587ae4fe446b98418947bb7da6cb,
        type: 3}
      propertyPath: m_LocalRotation.y
      value: 0
      objectReference: {fileID: 0}
    - target: {fileID: 224832679919696724, guid: 7a25587ae4fe446b98418947bb7da6cb,
        type: 3}
      propertyPath: m_LocalRotation.z
      value: 0
      objectReference: {fileID: 0}
    - target: {fileID: 224832679919696724, guid: 7a25587ae4fe446b98418947bb7da6cb,
        type: 3}
      propertyPath: m_LocalRotation.w
      value: 1
      objectReference: {fileID: 0}
    - target: {fileID: 224832679919696724, guid: 7a25587ae4fe446b98418947bb7da6cb,
        type: 3}
      propertyPath: m_RootOrder
      value: 3
      objectReference: {fileID: 0}
    - target: {fileID: 224832679919696724, guid: 7a25587ae4fe446b98418947bb7da6cb,
        type: 3}
      propertyPath: m_AnchoredPosition.x
      value: 0
      objectReference: {fileID: 0}
    - target: {fileID: 224832679919696724, guid: 7a25587ae4fe446b98418947bb7da6cb,
        type: 3}
      propertyPath: m_AnchoredPosition.y
      value: 0
      objectReference: {fileID: 0}
    - target: {fileID: 224832679919696724, guid: 7a25587ae4fe446b98418947bb7da6cb,
        type: 3}
      propertyPath: m_SizeDelta.x
      value: 0
      objectReference: {fileID: 0}
    - target: {fileID: 224832679919696724, guid: 7a25587ae4fe446b98418947bb7da6cb,
        type: 3}
      propertyPath: m_SizeDelta.y
      value: 0
      objectReference: {fileID: 0}
    - target: {fileID: 224832679919696724, guid: 7a25587ae4fe446b98418947bb7da6cb,
        type: 3}
      propertyPath: m_AnchorMin.x
      value: 0.71615005
      objectReference: {fileID: 0}
    - target: {fileID: 224832679919696724, guid: 7a25587ae4fe446b98418947bb7da6cb,
        type: 3}
      propertyPath: m_AnchorMin.y
      value: 0.5501362
      objectReference: {fileID: 0}
    - target: {fileID: 224832679919696724, guid: 7a25587ae4fe446b98418947bb7da6cb,
        type: 3}
      propertyPath: m_AnchorMax.x
      value: 0.99995583
      objectReference: {fileID: 0}
    - target: {fileID: 224832679919696724, guid: 7a25587ae4fe446b98418947bb7da6cb,
        type: 3}
      propertyPath: m_AnchorMax.y
      value: 1
      objectReference: {fileID: 0}
    - target: {fileID: 224832679919696724, guid: 7a25587ae4fe446b98418947bb7da6cb,
        type: 3}
      propertyPath: m_Pivot.x
      value: 0.5
      objectReference: {fileID: 0}
    - target: {fileID: 224832679919696724, guid: 7a25587ae4fe446b98418947bb7da6cb,
        type: 3}
      propertyPath: m_Pivot.y
      value: 0.5
      objectReference: {fileID: 0}
    - target: {fileID: 224888155729189054, guid: 7a25587ae4fe446b98418947bb7da6cb,
        type: 3}
      propertyPath: m_AnchorMin.y
      value: 0
      objectReference: {fileID: 0}
    - target: {fileID: 224888155729189054, guid: 7a25587ae4fe446b98418947bb7da6cb,
        type: 3}
      propertyPath: m_AnchorMax.y
      value: 0
      objectReference: {fileID: 0}
    - target: {fileID: 224888155729189054, guid: 7a25587ae4fe446b98418947bb7da6cb,
        type: 3}
      propertyPath: m_AnchoredPosition.x
      value: 0
      objectReference: {fileID: 0}
    - target: {fileID: 224888155729189054, guid: 7a25587ae4fe446b98418947bb7da6cb,
        type: 3}
      propertyPath: m_AnchoredPosition.y
      value: 0
      objectReference: {fileID: 0}
    - target: {fileID: 224888155729189054, guid: 7a25587ae4fe446b98418947bb7da6cb,
        type: 3}
      propertyPath: m_SizeDelta.x
      value: 0
      objectReference: {fileID: 0}
    - target: {fileID: 224888155729189054, guid: 7a25587ae4fe446b98418947bb7da6cb,
        type: 3}
      propertyPath: m_SizeDelta.y
      value: 0
      objectReference: {fileID: 0}
    m_RemovedComponents: []
  m_SourcePrefab: {fileID: 100100000, guid: 7a25587ae4fe446b98418947bb7da6cb, type: 3}
--- !u!224 &4225813599668855469 stripped
RectTransform:
  m_CorrespondingSourceObject: {fileID: 224832679919696724, guid: 7a25587ae4fe446b98418947bb7da6cb,
    type: 3}
  m_PrefabInstance: {fileID: 4160164102951787001}
  m_PrefabAsset: {fileID: 0}
--- !u!114 &4048215377336676787 stripped
MonoBehaviour:
  m_CorrespondingSourceObject: {fileID: 114271531578222666, guid: 7a25587ae4fe446b98418947bb7da6cb,
    type: 3}
  m_PrefabInstance: {fileID: 4160164102951787001}
  m_PrefabAsset: {fileID: 0}
  m_GameObject: {fileID: 0}
  m_Enabled: 1
  m_EditorHideFlags: 0
  m_Script: {fileID: 11500000, guid: 2839404bd363747759350375dfeda1bb, type: 3}
  m_Name: 
  m_EditorClassIdentifier: 
--- !u!114 &4048088486074870115 stripped
MonoBehaviour:
  m_CorrespondingSourceObject: {fileID: 114397802751242394, guid: 7a25587ae4fe446b98418947bb7da6cb,
    type: 3}
  m_PrefabInstance: {fileID: 4160164102951787001}
  m_PrefabAsset: {fileID: 0}
  m_GameObject: {fileID: 0}
  m_Enabled: 1
  m_EditorHideFlags: 0
  m_Script: {fileID: 11500000, guid: 7ff08d1721e4860458a69f7963cb2dc9, type: 3}
  m_Name: 
  m_EditorClassIdentifier: 
--- !u!1001 &4160164103315738931
PrefabInstance:
  m_ObjectHideFlags: 0
  serializedVersion: 2
  m_Modification:
    m_TransformParent: {fileID: 4160164102731652190}
    m_Modifications:
    - target: {fileID: 224221694726057282, guid: 2ca947ac50c0b1a4ab9e9525071b6731,
        type: 3}
      propertyPath: m_AnchoredPosition.x
      value: -0.517395
      objectReference: {fileID: 0}
    - target: {fileID: 224221694726057282, guid: 2ca947ac50c0b1a4ab9e9525071b6731,
        type: 3}
      propertyPath: m_AnchoredPosition.y
      value: -0.28637695
      objectReference: {fileID: 0}
    - target: {fileID: 224897315559760696, guid: 2ca947ac50c0b1a4ab9e9525071b6731,
        type: 3}
      propertyPath: m_LocalPosition.x
      value: 0
      objectReference: {fileID: 0}
    - target: {fileID: 224897315559760696, guid: 2ca947ac50c0b1a4ab9e9525071b6731,
        type: 3}
      propertyPath: m_LocalPosition.y
      value: 0
      objectReference: {fileID: 0}
    - target: {fileID: 224897315559760696, guid: 2ca947ac50c0b1a4ab9e9525071b6731,
        type: 3}
      propertyPath: m_LocalPosition.z
      value: 0
      objectReference: {fileID: 0}
    - target: {fileID: 224897315559760696, guid: 2ca947ac50c0b1a4ab9e9525071b6731,
        type: 3}
      propertyPath: m_LocalRotation.x
      value: 0
      objectReference: {fileID: 0}
    - target: {fileID: 224897315559760696, guid: 2ca947ac50c0b1a4ab9e9525071b6731,
        type: 3}
      propertyPath: m_LocalRotation.y
      value: 0
      objectReference: {fileID: 0}
    - target: {fileID: 224897315559760696, guid: 2ca947ac50c0b1a4ab9e9525071b6731,
        type: 3}
      propertyPath: m_LocalRotation.z
      value: 0
      objectReference: {fileID: 0}
    - target: {fileID: 224897315559760696, guid: 2ca947ac50c0b1a4ab9e9525071b6731,
        type: 3}
      propertyPath: m_LocalRotation.w
      value: 1
      objectReference: {fileID: 0}
    - target: {fileID: 224897315559760696, guid: 2ca947ac50c0b1a4ab9e9525071b6731,
        type: 3}
      propertyPath: m_RootOrder
      value: 0
      objectReference: {fileID: 0}
    - target: {fileID: 224897315559760696, guid: 2ca947ac50c0b1a4ab9e9525071b6731,
        type: 3}
      propertyPath: m_AnchoredPosition.x
      value: 0
      objectReference: {fileID: 0}
    - target: {fileID: 224897315559760696, guid: 2ca947ac50c0b1a4ab9e9525071b6731,
        type: 3}
      propertyPath: m_AnchoredPosition.y
      value: 0
      objectReference: {fileID: 0}
    - target: {fileID: 224897315559760696, guid: 2ca947ac50c0b1a4ab9e9525071b6731,
        type: 3}
      propertyPath: m_SizeDelta.x
      value: 0
      objectReference: {fileID: 0}
    - target: {fileID: 224897315559760696, guid: 2ca947ac50c0b1a4ab9e9525071b6731,
        type: 3}
      propertyPath: m_SizeDelta.y
      value: 0
      objectReference: {fileID: 0}
    - target: {fileID: 224897315559760696, guid: 2ca947ac50c0b1a4ab9e9525071b6731,
        type: 3}
      propertyPath: m_AnchorMin.x
      value: 0.00045271745
      objectReference: {fileID: 0}
    - target: {fileID: 224897315559760696, guid: 2ca947ac50c0b1a4ab9e9525071b6731,
        type: 3}
      propertyPath: m_AnchorMin.y
      value: 0.0008493681
      objectReference: {fileID: 0}
    - target: {fileID: 224897315559760696, guid: 2ca947ac50c0b1a4ab9e9525071b6731,
        type: 3}
      propertyPath: m_AnchorMax.x
      value: 1.0004528
      objectReference: {fileID: 0}
    - target: {fileID: 224897315559760696, guid: 2ca947ac50c0b1a4ab9e9525071b6731,
        type: 3}
      propertyPath: m_AnchorMax.y
      value: 1.0000024
      objectReference: {fileID: 0}
    - target: {fileID: 224897315559760696, guid: 2ca947ac50c0b1a4ab9e9525071b6731,
        type: 3}
      propertyPath: m_Pivot.x
      value: 0.5
      objectReference: {fileID: 0}
    - target: {fileID: 224897315559760696, guid: 2ca947ac50c0b1a4ab9e9525071b6731,
        type: 3}
      propertyPath: m_Pivot.y
      value: 0.5
      objectReference: {fileID: 0}
    m_RemovedComponents: []
  m_SourcePrefab: {fileID: 100100000, guid: 2ca947ac50c0b1a4ab9e9525071b6731, type: 3}
--- !u!224 &4225821068588724747 stripped
RectTransform:
  m_CorrespondingSourceObject: {fileID: 224897315559760696, guid: 2ca947ac50c0b1a4ab9e9525071b6731,
    type: 3}
  m_PrefabInstance: {fileID: 4160164103315738931}
  m_PrefabAsset: {fileID: 0}
